{
    "/js/app.js": "/js/app.js",
    "/css/app.css": "/css/app.css",
    "/css/blue.css": "/css/blue.css",
    "/css/green-dark.css": "/css/green-dark.css",
    "/images/logo.png": "/images/logo.png",
    "/images/info.png": "/images/info.png",
    "/images/user.png": "/images/user.png",
    "/images/userinfo.jpg": "/images/userinfo.jpg",
    "/images/logo-icon.png": "/images/logo-icon.png",
    "/images/logo-light-text.png": "/images/logo-light-text.png",
    "/images/logo-text.png": "/images/logo-text.png"
}